…
  ikibinonbeş & 7444.22 & 13748.38 & 495.00 & 3875.00 & 114382.00 \\ 
  ikibinonbir & 7318.21 & 12775.04 & 574.00 & 4048.00 & 105860.00 \\ 
  ikibinondokuz & 6695.23 & 12095.45 & 428.00 & 3479.00 & 100088.00 \\ 
  ikibinondört & 7403.75 & 13468.51 & 528.00 & 3995.00 & 112141.00 \\ 
  ikibinoniki & 7453.72 & 13293.73 & 547.00 & 4020.00 & 110478.00 \\ 
  ikibinonsekiz & 6844.31 & 12270.33 & 403.00 & 3490.00 & 101333.00 \\ 
  ikibinonüç & 7409.11 & 13344.35 & 528.00 & 4098.00 & 111050.00 \\ 
  ikibinonyedi & 7030.36 & 12813.59 & 445.00 & 3596.00 & 106053.00 \\ 
  ikibinyirmi & 6028.83 & 10541.60 & 355.00 & 3046.00 & 86029.00 \\ 
  ikibinyirmibir & 6952.35 & 12092.73 & 429.00 & 3547.00 & 98796.00 \\ 
  ikibinyirmiiki & 7090.84 & 12856.82 & 394.00 & 3552.00 & 105694.00 \\ 
   \bottomrule
\end{tabular}
\end{table}
# A tibble: 81 x 14
   ikibinonbir ikibind~1 ikibi~2 ikibi~3 ikibi~4 ikibi~5 ikibi~6 ikibi~7 ikibi~8
         <dbl>     <dbl>   <dbl>   <dbl>   <dbl>   <dbl>   <dbl>   <dbl>   <dbl>
 1         574       638     604     596     528     566     513     470     445
 2         608       599     605     547     547     528     495     465     460
 3         894       887     932     893     831     761     657     671     621
 4         932      1059     921     983     915     829     881     820     708
 5        1086      1138    1146    1183    1107    1098    1075    1005     963
 6        1282      1192    1276    1280    1259    1350    1277    1332    1282
 7        1308      1239    1241    1308    1313    1308    1297    1378    1306
 8        1366      1463    1350    1311    1280    1294    1157    1169    1143
 9        1392      1654    1602    1404    1393    1405    1247    1247    1157
10        1512      1501    1524    1584    1586    1737    1750    1693    1716
# ... with 71 more rows, 5 more variables: ikibinonsekiz <dbl>,
#   ikibinondokuz <dbl>, ikibinyirmi <dbl>, ikibinyirmibir <dbl>,
#   ikibinyirmiiki <dbl>, and abbreviated variable names 1: ikibindokuz,
#   2: ikibinon, 3: ikibinoniki, 4: ikibinonüç, 5: ikibinondört,
#   6: ikibinonbeş, 7: ikibinonaltı, 8: ikibinonyedi
# Yöntem ve Veri Analizi
…
